﻿Folio: 386.1 Reenrolamiento Movil
Fecha: 28/05/2019
Empleado: 98749188 Alan Guillermo López Ortiz

---------------MD5--------------- 	-----------COMPONENTE-----------

5b00610b25aec0ba1cdc646db1134336	menumovilaforecoppel.apk

------------------------------------------------------------------------
Folio: 546.1
Fecha: 05/07/2019
Empleado: 99802032 Sergio Gil

---------------MD5--------------- 	-----------COMPONENTE-----------

94ff695f508fd83161e54bd306024dc6	menumovilaforecoppel.apk

------------------------------------------------------------------------
Folio: 386.1 Reenrolamiento Movil
Fecha: 07/06/2019
Empleado: 98749188 Alan Guillermo López Ortiz

---------------MD5--------------- 	-----------COMPONENTE-----------

ad64d83a929c6de92d66fbe3aec99fab	menumovilaforecoppel.apk

------------------------------------------------------------------------

---------------MD5--------------- 	-----------COMPONENTE-----------

008ff9721780ba37f9f4299726947789	menumovilaforecoppel.apk

------------------------------------------------------------------------
Folio: 386.1 Reenrolamiento Movil
Fecha: 28/05/2019
Empleado: 98749188 Alan Guillermo López Ortiz

---------------MD5--------------- 	-----------COMPONENTE-----------

72d0a9dae0bb5ecedc36106afbe80ce1	menumovilaforecoppel.apk

------------------------------------------------------------------------
Folio: 386.1 Reenrolamiento Movil
Fecha: 21/05/2019
Empleado: 98749188 Alan Guillermo López Ortiz

---------------MD5--------------- 	-----------COMPONENTE-----------

40acd4d5ef8e7a1ecb210563a638e833	menumovilaforecoppel.apk

------------------------------------------------------------------------
Folio: 386.1 Reenrolamiento Movil
Fecha: 21/05/2019
Empleado: 98749188 Alan Guillermo López Ortiz

---------------MD5--------------- 	-----------COMPONENTE-----------

a5ab5a53348a5e7af7a83be1972a5bf0	menumovilaforecoppel.apk

------------------------------------------------------------------------
Folio: 386.1 Reenrolamiento Movil
Fecha: 08/05/2019
Empleado: 98749188 Alan Guillermo López Ortiz

---------------MD5--------------- 	-----------COMPONENTE-----------

c26413fc813a0b030bba61b77d2511f2	menumovilaforecoppel.apk

------------------------------------------------------------------------
Folio: 546.1 Reenrolamiento Movil
Fecha: 03/05/2019
Empleado: 99802033 Gerardo Cabrera

---------------MD5--------------- 	-----------COMPONENTE-----------

3c48383a67ae1b675cfac04bac81196f	menumovilaforecoppel.apk

------------------------------------------------------------------------
Folio: 546.1 Reenrolamiento Movil
Fecha: 15/04/2019
Empleado: 99802033 Gerardo Cabrera

---------------MD5--------------- 	-----------COMPONENTE-----------

b3cae5aa3bd5528a3afa869819c3a813	menumovilaforecoppel.apk

------------------------------------------------------------------------
Folio: 386.1 Reenrolamiento Movil
Fecha: 27/02/2019
Empleado: 98749188 Alan Guillermo Lopez Ortiz

---------------MD5--------------- 	-----------COMPONENTE-----------

cf23c8ad49a69a65ad0c53cb72181f84	menumovilaforecoppel.apk

------------------------------------------------------------------------

Folio: 386.1 Reenrolamiento Movil
Fecha: 19/02/2019
Empleado: 98749188 Alan Guillermo Lopez Ortiz

---------------MD5--------------- 	-----------COMPONENTE-----------

15a4ef3fc847570e6899b9985a2e0787	menumovilaforecoppel.apk

------------------------------------------------------------------------
Folio: 386.1 Reenrolamiento Movil
Fecha: 19/02/2019
Empleado: 98749188 Alan Guillermo Lopez Ortiz

---------------MD5--------------- 	-----------COMPONENTE-----------

6f86c135bdd2f1d76b3c669f69cf481f	menumovilaforecoppel.apk

------------------------------------------------------------------------
Folio: 386.1 Reenrolamiento Movil
Fecha: 14/02/2019
Empleado: 98749188 Alan Guillermo Lopez Ortiz

---------------MD5--------------- 	-----------COMPONENTE-----------

2e1e9806a62ea9539b5dba507a3c34ee	menumovilaforecoppel.apk

------------------------------------------------------------------------
Folio: 386.1 Reenrolamiento Movil
Fecha: 13/02/2019
Empleado: 98749188 Alan Guillermo Lopez Ortiz

---------------MD5--------------- 	-----------COMPONENTE-----------

2fbf313b9b8efbf22c27c2481acf3581	menumovilaforecoppel.apk

------------------------------------------------------------------------
Folio: 386.1 Reenrolamiento Movil
Fecha: 12/02/2019
Empleado: 98749188 Alan Guillermo Lopez Ortiz

---------------MD5--------------- 	-----------COMPONENTE-----------

dffb33262435c48302e11cd3e53ef385	menumovilaforecoppel.apk

------------------------------------------------------------------------
Folio: 386.1 Reenrolamiento Movil
Fecha: 31/01/2019
Empleado: 98749188 Alan Guillermo Lopez Ortiz

---------------MD5--------------- 	-----------COMPONENTE-----------

b21389954c466d97f10df1a16528f8c5	menumovilaforecoppel.apk

------------------------------------------------------------------------
Folio: 386.1 Reenrolamiento Movil
Fecha: 30/01/2019
Empleado: 98749188 Alan Guillermo Lopez Ortiz

---------------MD5--------------- 	-----------COMPONENTE-----------

2da6cfd5722cee746552f0913f2b2c06	menumovilaforecoppel.apk

------------------------------------------------------------------------
Folio: 386.1 Reenrolamiento Movil
Fecha: 24/01/2019
Empleado: 98749188 Alan Guillermo Lopez Ortiz

---------------MD5--------------- 	-----------COMPONENTE-----------

1551585e8c475ad5d26c3c11215da3a9	menumovilaforecoppel.apk

------------------------------------------------------------------------
Folio: 386.1 Reenrolamiento Movil
Fecha: 10/01/2019
Empleado: 98749188 Alan Guillermo Lopez Ortiz

---------------MD5--------------- 	-----------COMPONENTE-----------

4860fda294c01c975eb79d076cbf8795	menumovilaforecoppel-desarrollo.apk

------------------------------------------------------------------------
Folio: 386.1 Reenrolamiento Movil
Fecha: 10/01/2019
Empleado: 98749188 Alan Guillermo Lopez Ortiz

---------------MD5--------------- 	-----------COMPONENTE-----------

25e204db72b79f1c65b19db9bbcfe45c	menumovilaforecoppel-desarrollo.apk

------------------------------------------------------------------------
Folio: 386.1 Reenrolamiento Movil
Fecha: 10/01/2019
Empleado: 98749188 Alan Guillermo Lopez Ortiz

---------------MD5--------------- 	-----------COMPONENTE-----------

aea5d81c4110aa6b0cba5e5dfcccdfd3	menumovilaforecoppel-desarrollo.apk

------------------------------------------------------------------------
Folio: 386.1 Reenrolamiento Movil
Fecha: 07/01/2019
Empleado: 98749188 Alan Guillermo Lopez Ortiz

---------------MD5--------------- 	-----------COMPONENTE-----------

4ecf2336870a3de45e6972a63660b3f6	menumovilaforecoppel-desarrollo.apk

------------------------------------------------------------------------
Folio: 386.1 Reenrolamiento Movil
Fecha: 05/01/2019
Empleado: 98749188 Alan Guillermo Lopez Ortiz

---------------MD5--------------- 	-----------COMPONENTE-----------

da7a77bd2e543149ecc8c4852478f8f5	menumovilaforecoppel-desarrollo.apk

------------------------------------------------------------------------
Folio: 386.1 Reenrolamiento Movil
Fecha: 28/12/2018
Empleado: 98749188 Alan Guillermo Lopez Ortiz

---------------MD5--------------- 	-----------COMPONENTE-----------

5606fa9657ced177c37510750befefc2	menumovilaforecoppel-desarrollo.apk

------------------------------------------------------------------------
Folio: 386.1 Reenrolamiento Movil
Fecha: 27/12/2018
Empleado: 98749188 Alan Guillermo Lopez Ortiz

---------------MD5--------------- 	-----------COMPONENTE-----------

9cb96196c6050c64a9405124641fe6d3	menumovilaforecoppel-desarrollo.apk

------------------------------------------------------------------------
Folio: 386.1 Reenrolamiento Movil
Fecha: 20/12/2018
Empleado: 98104985 Judith Arámburo Castro

---------------MD5--------------- 	-----------COMPONENTE-----------

907d10a403cc59c1d283c23f8a3d8f7b	menumovilaforecoppel-desarrollo.apk

------------------------------------------------------------------------

Folio: 386.1 Reenrolamiento Movil
Fecha: 14/12/2018
Empleado: 98749188 Alan Guillermo López Ortiz

---------------MD5--------------- 	-----------COMPONENTE-----------

171666119718e1c88e4345c00b190bed	menumovilaforecoppel-desarrollo.apk

------------------------------------------------------------------------

Folio: 386.1 Reenrolamiento Movil
Fecha: 26/11/2018
Empleado: 98104985 Judith Arámburo Castro

---------------MD5--------------- 	-----------COMPONENTE-----------

3c2f5ec184a10e3f6ae8a5128e65dc4a	enrollmovil.apk
aee8ef0a263b49ed6cd6de29e3331884	menumovilaforecoppel-desarrollo.apk

------------------------------------------------------------------------

Folio: 386.1 Reenrolamiento Movil
Fecha: 16/11/2018
Empleado: 98104985 Judith Arámburo Castro

---------------MD5--------------- 	-----------COMPONENTE-----------

edccd66cf287dcf59d92e5aa700660fa	menumovilaforecoppel-desarrollo.apk

------------------------------------------------------------------------

Folio: 386.1 Reenrolamiento Movil
Fecha: 13/11/2018
Empleado: 98104985 Judith Arámburo Castro

---------------MD5--------------- 	-----------COMPONENTE-----------

70dc5cac434bfcebcf87bfa57de56b87	menumovilaforecoppel.apk

------------------------------------------------------------------------

Folio: 386.1 Reenrolamiento Movil
Fecha: 09/11/2018
Empleado: 98104985 Judith Arámburo Castro

---------------MD5--------------- 	-----------COMPONENTE-----------

edccd66cf287dcf59d92e5aa700660fa	menumovilaforecoppel.apk

------------------------------------------------------------------------

Folio: 386.1 Reenrolamiento Movil
Fecha: 02/11/2018
Empleado: 98104985 Judith Arámburo Castro

---------------MD5--------------- 	-----------COMPONENTE-----------

9b90aa2a02faaa71c99495b200875fa6	menumovilaforecoppel.apk

------------------------------------------------------------------------

Folio: 386.1 Reenrolamiento Movil
Fecha: 29/10/2018
Empleado: 98104985 Judith Arámburo Castro

---------------MD5--------------- 	-----------COMPONENTE-----------

f7187ab602fe399cd8d4de602b6c7997	enrollmovil.apk
7c442db430cafac1ca20dbdf5af2d730	menumovilaforecoppel.apk

------------------------------------------------------------------------

Folio: 386.1 Reenrolamiento Movil
Fecha: 24/10/2018
Empleado: 98104985 Judith Arámburo Castro

---------------MD5--------------- 	-----------COMPONENTE-----------

c2a6de20f8a401cff8a2bfe5ecc725af	menumovilaforecoppel.apk

------------------------------------------------------------------------

Folio: 386.1 Reenrolamiento Movil
Fecha: 22/10/2018
Empleado: 98104985 Judith Arámburo Castro

---------------MD5--------------- 	-----------COMPONENTE-----------

28704f232b24052501cb4b64c2c267dd	menumovilaforecoppel.apk

------------------------------------------------------------------------

Folio: 386.1 Reenrolamiento Movil
Fecha: 19/10/2018
Empleado: 98104985 Judith Arámburo Castro

---------------MD5--------------- 	-----------COMPONENTE-----------

6cdbe4b4d78fe438329166585f08a651	enrollmovil.apk

------------------------------------------------------------------------

Folio: 386.1 Reenrolamiento Movil
Fecha: 12/10/2018
Empleado: 98104985 Judith Arámburo Castro

---------------MD5--------------- 	-----------COMPONENTE-----------

83999e130fb17fc5687d3d812a505db2	zonapromotores.apk

------------------------------------------------------------------------

Folio: 386.1 Reenrolamiento Movil
Fecha: 12/10/2018
Empleado: 98104985 Judith Arámburo Castro

---------------MD5--------------- 	-----------COMPONENTE-----------

12dc8d0b0df230c0ae9cbac8aa97cd15	menumovilaforecoppel.apk

------------------------------------------------------------------------

Folio: 386.1 Reenrolamiento Movil
Fecha: 11/10/2018
Empleado: 98104985 Judith Arámburo Castro

---------------MD5--------------- 	-----------COMPONENTE-----------

e86b674fcf47b71f1ae186b36ef39654	menumovilaforecoppel.apk

------------------------------------------------------------------------

Folio: 386.1 Reenrolamiento Movil
Fecha: 10/10/2018
Empleado: 98104985 Judith Arámburo Castro

---------------MD5--------------- 	-----------COMPONENTE-----------

d0a6b6b54729d985d59ee8afdb4a349e	enrollmovil.apk

------------------------------------------------------------------------

Folio: 386.1 Reenrolamiento Movil
Fecha: 09/10/2018
Empleado: 98104985 Judith Arámburo Castro

---------------MD5--------------- 	-----------COMPONENTE-----------

a914d958ab9b34ad8961b7f7d94fff23    menumovilaforecoppel.apk

------------------------------------------------------------------------